{
  "info": {
    "version": "0.9.8",
    "dependency": []
  },
  "root": {
    "type": "Group",
    "name": "Group 1028",
    "elements": [
      {
        "type": "Group",
        "name": "B2HvEZ",
        "elements": [
          {
            "type": "Group",
            "name": "Group 200",
            "elements": [
              {
                "type": "Image",
                "name": "Path 183",
                "guid": "c59ef746-4aab-470a-95f3-1f14370e4117",
                "active": true,
                "global_draw_bounds": {
                  "x": 5306.63037109375,
                  "y": 8486,
                  "width": 30.43505859375,
                  "height": 30.4228515625,
                  "ex": 5337.0654296875,
                  "ey": 8516.4228515625
                },
                "rect_transform": {
                  "fix": {
                    "left": true,
                    "right": true,
                    "top": true,
                    "bottom": true,
                    "width": false,
                    "height": false
                  },
                  "pivot": {
                    "x": 0.5,
                    "y": 0.5
                  },
                  "anchor_min": {
                    "x": 0,
                    "y": 0
                  },
                  "anchor_max": {
                    "x": 1,
                    "y": 1
                  },
                  "offset_min": {
                    "x": 0,
                    "y": 0
                  },
                  "offset_max": {
                    "x": 0,
                    "y": 0
                  }
                },
                "layer": "UI",
                "parsed_names": [
                  "Path_183"
                ],
                "opacity": 100,
                "image": {
                  "source_image": "Path 183+c59ef"
                }
              }
            ],
            "guid": "a6e18cdd-5e3a-4128-8f3c-b6e419598a07",
            "active": true,
            "global_draw_bounds": {
              "x": 5306.63037109375,
              "y": 8486,
              "width": 30.43505859375,
              "height": 30.4228515625,
              "ex": 5337.0654296875,
              "ey": 8516.4228515625
            },
            "rect_transform": {
              "fix": {
                "left": true,
                "right": true,
                "top": true,
                "bottom": true,
                "width": false,
                "height": false
              },
              "pivot": {
                "x": 0.5,
                "y": 0.5
              },
              "anchor_min": {
                "x": 0,
                "y": 0
              },
              "anchor_max": {
                "x": 1,
                "y": 1
              },
              "offset_min": {
                "x": 0,
                "y": 0
              },
              "offset_max": {
                "x": 0,
                "y": 0
              }
            },
            "layer": "UI",
            "parsed_names": [
              "Group_200"
            ]
          }
        ],
        "guid": "96a3b706-f197-449d-8ae2-63898a69085b",
        "active": true,
        "global_draw_bounds": {
          "x": 5306.63037109375,
          "y": 8486,
          "width": 30.43505859375,
          "height": 30.4228515625,
          "ex": 5337.0654296875,
          "ey": 8516.4228515625
        },
        "rect_transform": {
          "fix": {
            "left": 0.7622110646714043,
            "right": 0.2230002771197765,
            "top": 0.3469656992084433,
            "bottom": 0.6329664567529684,
            "width": true,
            "height": true
          },
          "pivot": {
            "x": 0.5,
            "y": 0.5
          },
          "anchor_min": {
            "x": 0.7696053937758139,
            "y": 0.6430003787722625
          },
          "anchor_max": {
            "x": 0.7696053937758139,
            "y": 0.6430003787722625
          },
          "offset_min": {
            "x": -15.217529296875,
            "y": -15.21142578125
          },
          "offset_max": {
            "x": 15.217529296875,
            "y": 15.21142578125
          }
        },
        "layer": "UI",
        "parsed_names": [
          "B2HvEZ",
          ".tif"
        ]
      },
      {
        "type": "Text",
        "name": "Slideshow",
        "text": {
          "text": "Proceed",
          "textType": "point",
          "font": "Poppins",
          "style": "Regular",
          "size": 32,
          "color": "#fdfeff",
          "align": "centermiddle",
          "opacity": 100
        },
        "guid": "d713a581-6a04-485a-939b-42530c7b80a9",
        "active": true,
        "global_draw_bounds": {
          "x": 4739.41455078125,
          "y": 8717.52734375,
          "width": 136,
          "height": 46,
          "ex": 4875.41455078125,
          "ey": 8763.52734375,
          "text": {
            "fontSize": 16
          }
        },
        "rect_transform": {
          "fix": {
            "left": 0.48659599163326045,
            "right": 0.4473204320790816,
            "top": 0.49968822147097625,
            "bottom": 0.4699687706134565,
            "width": true,
            "height": true
          },
          "pivot": {
            "x": 0.5,
            "y": 0.5
          },
          "anchor_min": {
            "x": 0.5196377797770895,
            "y": 0.4851402745712402
          },
          "anchor_max": {
            "x": 0.5196377797770895,
            "y": 0.4851402745712402
          },
          "offset_min": {
            "x": -68,
            "y": -23
          },
          "offset_max": {
            "x": 68,
            "y": 23
          }
        },
        "layer": "UI",
        "parsed_names": [
          "Slideshow"
        ]
      },
      {
        "type": "Image",
        "name": "Background",
        "guid": "374b52aa-179d-4d64-8122-eb6e25de6704",
        "active": true,
        "global_draw_bounds": {
          "x": 4656,
          "y": 8684.1044921875,
          "width": 308.97802734375,
          "height": 112.8955078125,
          "ex": 4964.97802734375,
          "ey": 8797
        },
        "rect_transform": {
          "fix": {
            "left": 0.446064139941691,
            "right": 0.40380076416727406,
            "top": 0.4776414856118074,
            "bottom": 0.4478891820580475,
            "width": true,
            "height": true
          },
          "pivot": {
            "x": 0.5,
            "y": 0.5
          },
          "anchor_min": {
            "x": 0.5211316878872084,
            "y": 0.48512384822312005
          },
          "anchor_max": {
            "x": 0.5211316878872084,
            "y": 0.48512384822312005
          },
          "offset_min": {
            "x": -154.489013671875,
            "y": -56.44775390625
          },
          "offset_max": {
            "x": 154.489013671875,
            "y": 56.44775390625
          }
        },
        "layer": "UI",
        "parsed_names": [
          "Background"
        ],
        "opacity": 100,
        "image": {
          "source_image": "Background+374b5"
        }
      },
      {
        "type": "Text",
        "name": "Slideshow",
        "text": {
          "text": "Home choice claria detected",
          "textType": "point",
          "font": "Geogrotesque",
          "style": "Regular",
          "size": 58,
          "color": "#171616",
          "align": "centermiddle",
          "opacity": 100
        },
        "guid": "1c59f263-6ca8-4a9f-98f2-aef508774244",
        "active": true,
        "global_draw_bounds": {
          "x": 4453,
          "y": 8552,
          "width": 736,
          "height": 76,
          "ex": 5189,
          "ey": 8628,
          "text": {
            "fontSize": 29
          }
        },
        "rect_transform": {
          "fix": {
            "left": 0.34742468415937805,
            "right": 0.2949465500485909,
            "top": 0.39050131926121373,
            "bottom": 0.5593667546174143,
            "width": true,
            "height": true
          },
          "pivot": {
            "x": 0.5,
            "y": 0.5
          },
          "anchor_min": {
            "x": 0.5262390670553936,
            "y": 0.5844327176781003
          },
          "anchor_max": {
            "x": 0.5262390670553936,
            "y": 0.5844327176781003
          },
          "offset_min": {
            "x": -368,
            "y": -38
          },
          "offset_max": {
            "x": 368,
            "y": 38
          }
        },
        "layer": "UI",
        "parsed_names": [
          "Slideshow"
        ]
      },
      {
        "type": "Group",
        "name": "Calendar",
        "elements": [
          {
            "type": "Image",
            "name": "Background",
            "guid": "f535123a-914e-45fd-8ee0-0210cbf9cbc9",
            "active": true,
            "global_draw_bounds": {
              "x": 4254,
              "y": 8462,
              "width": 1112,
              "height": 364,
              "ex": 5366,
              "ey": 8826
            },
            "rect_transform": {
              "fix": {
                "left": 0,
                "right": 0,
                "top": 0,
                "bottom": 0,
                "width": false,
                "height": false
              },
              "pivot": {
                "x": 0.5,
                "y": 0.5
              },
              "anchor_min": {
                "x": 0,
                "y": 0
              },
              "anchor_max": {
                "x": 1,
                "y": 1
              },
              "offset_min": {
                "x": 0,
                "y": 0
              },
              "offset_max": {
                "x": 0,
                "y": 0
              }
            },
            "layer": "UI",
            "parsed_names": [
              "Background"
            ],
            "opacity": 100,
            "image": {
              "source_image": "Background+f5351"
            }
          }
        ],
        "guid": "9d33e58a-008f-4dd9-adb0-929e1f5198bb",
        "active": true,
        "global_draw_bounds": {
          "x": 4254,
          "y": 8462,
          "width": 1112,
          "height": 364,
          "ex": 5366,
          "ey": 8826
        },
        "rect_transform": {
          "fix": {
            "left": 0.25072886297376096,
            "right": 0.20894071914480078,
            "top": 0.3311345646437995,
            "bottom": 0.4287598944591029,
            "width": false,
            "height": false
          },
          "pivot": {
            "x": 0.5,
            "y": 0.5
          },
          "anchor_min": {
            "x": 0.25072886297376096,
            "y": 0.4287598944591029
          },
          "anchor_max": {
            "x": 0.7910592808551993,
            "y": 0.6688654353562005
          },
          "offset_min": {
            "x": 0,
            "y": 0
          },
          "offset_max": {
            "x": 0,
            "y": 0
          }
        },
        "layer": "UI",
        "parsed_names": [
          "Calendar"
        ]
      },
      {
        "type": "Image",
        "name": "Overlay",
        "guid": "60a135d5-df21-458d-ac3c-b7b84cf7597a",
        "active": true,
        "global_draw_bounds": {
          "x": 3742,
          "y": 7960,
          "width": 2054,
          "height": 1516,
          "ex": 5796,
          "ey": 9476
        },
        "rect_transform": {
          "fix": {
            "left": true,
            "right": true,
            "top": true,
            "bottom": true,
            "width": false,
            "height": false
          },
          "pivot": {
            "x": 0.5,
            "y": 0.5
          },
          "anchor_min": {
            "x": 0,
            "y": 0
          },
          "anchor_max": {
            "x": 1,
            "y": 1
          },
          "offset_min": {
            "x": 4,
            "y": 0
          },
          "offset_max": {
            "x": 0,
            "y": 0
          }
        },
        "layer": "UI",
        "parsed_names": [
          "Overlay"
        ],
        "opacity": 100,
        "image": {
          "source_image": "Overlay+60a13"
        }
      },
      {
        "type": "Group",
        "name": "Mask Group 4",
        "elements": [
          {
            "type": "Image",
            "name": "Rectangle 13",
            "guid": "d4095b33-118b-4948-bd7b-bd9858510a52",
            "active": true,
            "global_draw_bounds": {
              "x": 3738,
              "y": 7960,
              "width": 2054,
              "height": 1516,
              "ex": 5792,
              "ey": 9476
            },
            "rect_transform": {
              "fix": {
                "left": true,
                "right": true,
                "top": true,
                "bottom": true,
                "width": false,
                "height": false
              },
              "pivot": {
                "x": 0.5,
                "y": 0.5
              },
              "anchor_min": {
                "x": 0,
                "y": 0
              },
              "anchor_max": {
                "x": 1,
                "y": 1
              },
              "offset_min": {
                "x": 1867,
                "y": -4652
              },
              "offset_max": {
                "x": 2894,
                "y": -4163
              }
            },
            "layer": "UI",
            "parsed_names": [
              "Rectangle_13"
            ],
            "component": {},
            "opacity": 100,
            "image": {
              "source_image": "Rectangle 13+d4095"
            }
          },
          {
            "type": "Group",
            "name": ".content",
            "elements": [
              {
                "type": "Image",
                "name": "Claria on a  background",
                "guid": "642623c3-8e97-4781-93c3-9cf8c35e9fff",
                "active": true,
                "global_draw_bounds": {
                  "x": 3742,
                  "y": 7594,
                  "width": 2054,
                  "height": 2054,
                  "ex": 5796,
                  "ey": 9648
                },
                "rect_transform": {
                  "fix": {
                    "left": true,
                    "right": true,
                    "top": true,
                    "bottom": true,
                    "width": false,
                    "height": false
                  },
                  "pivot": {
                    "x": 0.5,
                    "y": 0.5
                  },
                  "anchor_min": {
                    "x": 0,
                    "y": 0
                  },
                  "anchor_max": {
                    "x": 1,
                    "y": 1
                  },
                  "offset_min": {
                    "x": 1871,
                    "y": -4824
                  },
                  "offset_max": {
                    "x": 2898,
                    "y": -3797
                  }
                },
                "layer": "UI",
                "parsed_names": [
                  "Claria_on_a__background"
                ],
                "opacity": 100,
                "image": {
                  "source_image": "Claria on a  backgro+64262"
                }
              }
            ],
            "x": 1871,
            "y": 3797,
            "width": 1027,
            "height": 1027,
            "ex": 2898,
            "ey": 4824,
            "global_draw_bounds": {
              "x": 1871,
              "y": 3797,
              "width": 1027,
              "height": 1027,
              "ex": 2898,
              "ey": 2898
            },
            "rect_transform": {
              "fix": {
                "left": null,
                "right": null,
                "top": null,
                "bottom": null,
                "width": null,
                "height": null
              },
              "pivot": {
                "x": 0.5,
                "y": 0.5
              },
              "anchor_min": {
                "x": -0.6589581304771177,
                "y": 3.407321899736148
              },
              "anchor_max": {
                "x": -0.6589581304771177,
                "y": 3.407321899736148
              },
              "offset_min": {
                "x": -513.5,
                "y": -513.5
              },
              "offset_max": {
                "x": 513.5,
                "y": 513.5
              }
            },
            "layer": "UI"
          }
        ],
        "guid": "cc6a190b-1023-450d-b888-29e472c9c2eb",
        "active": true,
        "global_draw_bounds": {
          "x": 3738,
          "y": 7960,
          "width": 2054,
          "height": 1516,
          "ex": 5792,
          "ey": 9476
        },
        "rect_transform": {
          "fix": {
            "left": true,
            "right": true,
            "top": true,
            "bottom": true,
            "width": false,
            "height": false
          },
          "pivot": {
            "x": 0.5,
            "y": 0.5
          },
          "anchor_min": {
            "x": 0,
            "y": 0
          },
          "anchor_max": {
            "x": 1,
            "y": 1
          },
          "offset_min": {
            "x": 0,
            "y": 0
          },
          "offset_max": {
            "x": -4,
            "y": 0
          }
        },
        "layer": "UI",
        "parsed_names": [
          "Mask_Group_4"
        ],
        "mask": {
          "show_mask_graphic": false
        }
      }
    ],
    "guid": "b9a214ed-6447-4106-ac3e-dadbfb3927f7",
    "active": true,
    "global_draw_bounds": {
      "x": 3738,
      "y": 7960,
      "width": 2058,
      "height": 1516,
      "ex": 5796,
      "ey": 9476
    },
    "rect_transform": {
      "fix": {
        "left": null,
        "right": null,
        "top": null,
        "bottom": null,
        "width": null,
        "height": null
      },
      "pivot": {
        "x": 0.5,
        "y": 0.5
      },
      "anchor_min": {
        "x": 0.50048828125,
        "y": 0.4793956043956044
      },
      "anchor_max": {
        "x": 0.50048828125,
        "y": 0.4793956043956044
      },
      "offset_min": {
        "x": -1029,
        "y": -758
      },
      "offset_max": {
        "x": 1029,
        "y": 758
      }
    },
    "layer": "UI",
    "parsed_names": [
      "Group_1028"
    ]
  }
}