%YAML 1.1
%TAG !u! tag:unity3d.com,2011:
--- !u!114 &11400000
MonoBehaviour:
  m_ObjectHideFlags: 0
  m_PrefabParentObject: {fileID: 0}
  m_PrefabInternal: {fileID: 0}
  m_GameObject: {fileID: 0}
  m_Enabled: 1
  m_EditorHideFlags: 0
  m_Script: {fileID: 11500000, guid: 8a3bdb2cd68f901469e7cc149151eb49, type: 3}
  m_Name: halloween-cam-effects
  m_EditorClassIdentifier: 
  debugViews:
    m_Enabled: 1
    m_Settings:
      mode: 0
      depth:
        scale: 1
      motionVectors:
        sourceOpacity: 1
        motionImageOpacity: 0
        motionImageAmplitude: 16
        motionVectorsOpacity: 1
        motionVectorsResolution: 24
        motionVectorsAmplitude: 64
  fog:
    m_Enabled: 0
    m_Settings:
      excludeSkybox: 1
  antialiasing:
    m_Enabled: 1
    m_Settings:
      method: 0
      fxaaSettings:
        preset: 2
      taaSettings:
        jitterSpread: 0.75
        sharpen: 0.3
        stationaryBlending: 0.95
        motionBlending: 0.85
  ambientOcclusion:
    m_Enabled: 0
    m_Settings:
      intensity: 4
      radius: 0.3
      sampleCount: 10
      downsampling: 1
      forceForwardCompatibility: 0
      ambientOnly: 0
      highPrecision: 0
  screenSpaceReflection:
    m_Enabled: 0
    m_Settings:
      reflection:
        blendType: 0
        reflectionQuality: 2
        maxDistance: 100
        iterationCount: 256
        stepSize: 3
        widthModifier: 0.5
        reflectionBlur: 1
        reflectBackfaces: 0
      intensity:
        reflectionMultiplier: 1
        fadeDistance: 100
        fresnelFade: 1
        fresnelFadePower: 1
      screenEdgeMask:
        intensity: 0.03
  depthOfField:
    m_Enabled: 1
    m_Settings:
      focusDistance: 19.41
      aperture: 0.1
      focalLength: 50
      useCameraFov: 1
      kernelSize: 3
  motionBlur:
    m_Enabled: 0
    m_Settings:
      shutterAngle: 270
      sampleCount: 10
      frameBlending: 0
  eyeAdaptation:
    m_Enabled: 0
    m_Settings:
      lowPercent: 45
      highPercent: 95
      minLuminance: -5
      maxLuminance: 1
      keyValue: 0.25
      dynamicKeyValue: 1
      adaptationType: 0
      speedUp: 2
      speedDown: 1
      logMin: -8
      logMax: 4
  bloom:
    m_Enabled: 1
    m_Settings:
      bloom:
        intensity: 6.6
        threshold: 1.1
        softKnee: 0.5
        radius: 4
        antiFlicker: 0
      lensDirt:
        texture: {fileID: 0}
        intensity: 3
  colorGrading:
    m_Enabled: 0
    m_Settings:
      tonemapping:
        tonemapper: 2
        neutralBlackIn: 0.02
        neutralWhiteIn: 10
        neutralBlackOut: 0
        neutralWhiteOut: 10
        neutralWhiteLevel: 5.3
        neutralWhiteClip: 10
      basic:
        postExposure: 0
        temperature: 0
        tint: 0
        hueShift: 0
        saturation: 1
        contrast: 1
      channelMixer:
        red: {x: 1, y: 0, z: 0}
        green: {x: 0, y: 1, z: 0}
        blue: {x: 0, y: 0, z: 1}
        currentEditingChannel: 0
      colorWheels:
        mode: 1
        log:
          slope:
            r: 0
            g: 0
            b: 0
            a: 0
          power:
            r: 0
            g: 0
            b: 0
            a: 0
          offset:
            r: 0
            g: 0
            b: 0
            a: 0
        linear:
          lift:
            r: 0
            g: 0
            b: 0
            a: 0
          gamma:
            r: 0
            g: 0
            b: 0
            a: 0
          gain:
            r: 0
            g: 0
            b: 0
            a: 0
      curves:
        master:
          curve:
            m_Curve:
            - time: 0
              value: 0
              inSlope: 1
              outSlope: 1
              tangentMode: 0
            - time: 1
              value: 1
              inSlope: 1
              outSlope: 1
              tangentMode: 0
            m_PreInfinity: 2
            m_PostInfinity: 2
            m_RotationOrder: 4
          m_Loop: 0
          m_ZeroValue: 0
          m_Range: 1
          m_InternalLoopingCurve:
            m_Curve: []
            m_PreInfinity: 2
            m_PostInfinity: 2
            m_RotationOrder: 4
        red:
          curve:
            m_Curve:
            - time: 0
              value: 0
              inSlope: 1
              outSlope: 1
              tangentMode: 0
            - time: 1
              value: 1
              inSlope: 1
              outSlope: 1
              tangentMode: 0
            m_PreInfinity: 2
            m_PostInfinity: 2
            m_RotationOrder: 4
          m_Loop: 0
          m_ZeroValue: 0
          m_Range: 1
          m_InternalLoopingCurve:
            m_Curve: []
            m_PreInfinity: 2
            m_PostInfinity: 2
            m_RotationOrder: 4
        green:
          curve:
            m_Curve:
            - time: 0
              value: 0
              inSlope: 1
              outSlope: 1
              tangentMode: 0
            - time: 1
              value: 1
              inSlope: 1
              outSlope: 1
              tangentMode: 0
            m_PreInfinity: 2
            m_PostInfinity: 2
            m_RotationOrder: 4
          m_Loop: 0
          m_ZeroValue: 0
          m_Range: 1
          m_InternalLoopingCurve:
            m_Curve: []
            m_PreInfinity: 2
            m_PostInfinity: 2
            m_RotationOrder: 4
        blue:
          curve:
            m_Curve:
            - time: 0
              value: 0
              inSlope: 1
              outSlope: 1
              tangentMode: 0
            - time: 1
              value: 1
              inSlope: 1
              outSlope: 1
              tangentMode: 0
            m_PreInfinity: 2
            m_PostInfinity: 2
            m_RotationOrder: 4
          m_Loop: 0
          m_ZeroValue: 0
          m_Range: 1
          m_InternalLoopingCurve:
            m_Curve: []
            m_PreInfinity: 2
            m_PostInfinity: 2
            m_RotationOrder: 4
        hueVShue:
          curve:
            m_Curve: []
            m_PreInfinity: 2
            m_PostInfinity: 2
            m_RotationOrder: 4
          m_Loop: 1
          m_ZeroValue: 0.5
          m_Range: 1
          m_InternalLoopingCurve:
            m_Curve: []
            m_PreInfinity: 2
            m_PostInfinity: 2
            m_RotationOrder: 4
        hueVSsat:
          curve:
            m_Curve: []
            m_PreInfinity: 2
            m_PostInfinity: 2
            m_RotationOrder: 4
          m_Loop: 1
          m_ZeroValue: 0.5
          m_Range: 1
          m_InternalLoopingCurve:
            m_Curve: []
            m_PreInfinity: 2
            m_PostInfinity: 2
            m_RotationOrder: 4
        satVSsat:
          curve:
            m_Curve: []
            m_PreInfinity: 2
            m_PostInfinity: 2
            m_RotationOrder: 4
          m_Loop: 0
          m_ZeroValue: 0.5
          m_Range: 1
          m_InternalLoopingCurve:
            m_Curve: []
            m_PreInfinity: 2
            m_PostInfinity: 2
            m_RotationOrder: 4
        lumVSsat:
          curve:
            m_Curve: []
            m_PreInfinity: 2
            m_PostInfinity: 2
            m_RotationOrder: 4
          m_Loop: 0
          m_ZeroValue: 0.5
          m_Range: 1
          m_InternalLoopingCurve:
            m_Curve: []
            m_PreInfinity: 2
            m_PostInfinity: 2
            m_RotationOrder: 4
        e_CurrentEditingCurve: 0
        e_CurveY: 1
        e_CurveR: 0
        e_CurveG: 0
        e_CurveB: 0
    <isDirty>k__BackingField: 0
    <bakedLut>k__BackingField: {fileID: 0}
  userLut:
    m_Enabled: 0
    m_Settings:
      lut: {fileID: 0}
      contribution: 1
  chromaticAberration:
    m_Enabled: 1
    m_Settings:
      spectralTexture: {fileID: 0}
      intensity: 0.1
  grain:
    m_Enabled: 1
    m_Settings:
      colored: 1
      intensity: 0.5
      size: 1
      luminanceContribution: 0.8
  vignette:
    m_Enabled: 1
    m_Settings:
      mode: 0
      color:
        r: 0
        g: 0
        b: 0
        a: 1
      center: {x: 0.5, y: 0.5}
      intensity: 0.45
      smoothness: 0.2
      roundness: 1
      mask: {fileID: 0}
      opacity: 1
      rounded: 0
  dithering:
    m_Enabled: 1
    m_Settings: {}
  monitors:
    currentMonitorID: 0
    refreshOnPlay: 0
    histogramMode: 3
    waveformExposure: 0.12
    waveformY: 0
    waveformR: 1
    waveformG: 1
    waveformB: 1
    paradeExposure: 0.12
    vectorscopeExposure: 0.12
    vectorscopeShowBackground: 1
